// Jest Snapshot v1, https://goo.gl/fbAQLP

exports[`Snapshot testing adds two numbers 1`] = `4`;

exports[`Snapshot testing renders a prop correctly 1`] = `
<div>
  <h1>
    Welcome
  </h1>
  <p>
    No user selected. Select one on the left!
  </p>
  Foo
</div>
`;

exports[`Snapshot testing renders a prop correctly 2`] = `
<div>
  <h1>
    Welcome
  </h1>
  <p>
    No user selected. Select one on the left!
  </p>
  baz
</div>
`;

exports[`Snapshot testing renders a prop correctly 3`] = `
<div>
  <h1>
    Welcome
  </h1>
  <p>
    No user selected. Select one on the left!
  </p>
</div>
`;

exports[`Snapshot testing renders a prop correctly 4`] = `
<div>
  <h1>
    Welcome
  </h1>
  <p>
    No user selected. Select one on the left!
  </p>
  &lt;/div&gt;
</div>
`;

exports[`Snapshot testing renders same as before 1`] = `
<div>
  <h1>
    Welcome
  </h1>
  <p>
    No user selected. Select one on the left!
  </p>
</div>
`;
